<?xml version="1.0" encoding="UTF-8" standalone="no"?>
<!-- Created with Inkscape (http://www.inkscape.org/) -->

<svg
   xmlns:dc="http://purl.org/dc/elements/1.1/"
   xmlns:cc="http://creativecommons.org/ns#"
   xmlns:rdf="http://www.w3.org/1999/02/22-rdf-syntax-ns#"
   xmlns:svg="http://www.w3.org/2000/svg"
   xmlns="http://www.w3.org/2000/svg"
   xmlns:sodipodi="http://sodipodi.sourceforge.net/DTD/sodipodi-0.dtd"
   xmlns:inkscape="http://www.inkscape.org/namespaces/inkscape"
   width="210mm"
   height="297mm"
   viewBox="0 0 210 297"
   version="1.1"
   id="svg8"
   inkscape:version="0.92.4 (5da689c313, 2019-01-14)"
   sodipodi:docname="TRIBE.svg">
  <defs
     id="defs2" />
  <sodipodi:namedview
     id="base"
     pagecolor="#ffffff"
     bordercolor="#666666"
     borderopacity="1.0"
     inkscape:pageopacity="0.0"
     inkscape:pageshadow="2"
     inkscape:zoom="0.175"
     inkscape:cx="941.90464"
     inkscape:cy="962.26251"
     inkscape:document-units="mm"
     inkscape:current-layer="layer1"
     showgrid="false"
     inkscape:window-width="1920"
     inkscape:window-height="1016"
     inkscape:window-x="0"
     inkscape:window-y="27"
     inkscape:window-maximized="1" />
  <metadata
     id="metadata5">
    <rdf:RDF>
      <cc:Work
         rdf:about="">
        <dc:format>image/svg+xml</dc:format>
        <dc:type
           rdf:resource="http://purl.org/dc/dcmitype/StillImage" />
        <dc:title></dc:title>
      </cc:Work>
    </rdf:RDF>
  </metadata>
  <g
     inkscape:label="Layer 1"
     inkscape:groupmode="layer"
     id="layer1">
    <rect
       style="fill:#ffffff;fill-opacity:1;stroke:#ff0000;stroke-width:2;stroke-miterlimit:4;stroke-dasharray:2,2;stroke-dashoffset:0;stroke-opacity:1"
       id="rect815"
       width="157.2381"
       height="157.2381"
       x="22.678572"
       y="75.505951"
       rx="3.5534863"
       ry="3.8487616"
       inkscape:export-filename="/home/marc/rect815.png"
       inkscape:export-xdpi="33.939999"
       inkscape:export-ydpi="33.939999" />
    <text
       xml:space="preserve"
       style="font-style:normal;font-variant:normal;font-weight:normal;font-stretch:normal;font-size:10.58333302px;line-height:1.25;font-family:slave;-inkscape-font-specification:slave;letter-spacing:0px;word-spacing:0px;fill:#000000;fill-opacity:1;stroke:none;stroke-width:0.26458332"
       x="49.892857"
       y="124.64285"
       id="text819"
       inkscape:export-filename="/home/marc/rect815.png"
       inkscape:export-xdpi="33.939999"
       inkscape:export-ydpi="33.939999"><tspan
         sodipodi:role="line"
         id="tspan817"
         x="49.892857"
         y="124.64285"
         style="stroke-width:0.26458332">Cyber ISO Cell</tspan></text>
    <rect
       style="fill:#ffffff;fill-opacity:1;stroke:#ff0000;stroke-width:2;stroke-miterlimit:4;stroke-dasharray:2.00000002, 2.00000002;stroke-dashoffset:0;stroke-opacity:1"
       id="rect815-3"
       width="157.2381"
       height="157.2381"
       x="-192.0119"
       y="39.220238"
       rx="3.5534863"
       ry="3.8487616"
       inkscape:export-filename="/home/marc/rect815.png"
       inkscape:export-xdpi="33.939999"
       inkscape:export-ydpi="33.939999" />
    <text
       xml:space="preserve"
       style="font-style:normal;font-variant:normal;font-weight:normal;font-stretch:normal;font-size:10.58333302px;line-height:1.25;font-family:slave;-inkscape-font-specification:slave;letter-spacing:0px;word-spacing:0px;fill:#000000;fill-opacity:1;stroke:none;stroke-width:0.26458332"
       x="-164.79762"
       y="88.35714"
       id="text819-6"
       inkscape:export-filename="/home/marc/rect815.png"
       inkscape:export-xdpi="33.939999"
       inkscape:export-ydpi="33.939999"><tspan
         sodipodi:role="line"
         id="tspan817-7"
         x="-164.79762"
         y="88.35714"
         style="stroke-width:0.26458332">Cyber ISO Cell</tspan></text>
    <rect
       style="fill:#ffffff;fill-opacity:1;stroke:#ff0000;stroke-width:2;stroke-miterlimit:4;stroke-dasharray:2.00000002, 2.00000002;stroke-dashoffset:0;stroke-opacity:1"
       id="rect815-5"
       width="157.2381"
       height="157.2381"
       x="226.78571"
       y="-106.67857"
       rx="3.5534863"
       ry="3.8487616"
       inkscape:export-filename="/home/marc/rect815.png"
       inkscape:export-xdpi="33.939999"
       inkscape:export-ydpi="33.939999" />
    <text
       xml:space="preserve"
       style="font-style:normal;font-variant:normal;font-weight:normal;font-stretch:normal;font-size:10.58333302px;line-height:1.25;font-family:slave;-inkscape-font-specification:slave;letter-spacing:0px;word-spacing:0px;fill:#000000;fill-opacity:1;stroke:none;stroke-width:0.26458332"
       x="254"
       y="-57.541672"
       id="text819-3"
       inkscape:export-filename="/home/marc/rect815.png"
       inkscape:export-xdpi="33.939999"
       inkscape:export-ydpi="33.939999"><tspan
         sodipodi:role="line"
         id="tspan817-5"
         x="254"
         y="-57.541672"
         style="stroke-width:0.26458332">Cyber ISO Cell</tspan></text>
    <rect
       style="fill:#ffffff;fill-opacity:1;stroke:#ff0000;stroke-width:2;stroke-miterlimit:4;stroke-dasharray:2.00000002, 2.00000002;stroke-dashoffset:0;stroke-opacity:1"
       id="rect815-6"
       width="157.2381"
       height="157.2381"
       x="303.1369"
       y="191.16667"
       rx="3.5534863"
       ry="3.8487616"
       inkscape:export-filename="/home/marc/rect815.png"
       inkscape:export-xdpi="33.939999"
       inkscape:export-ydpi="33.939999" />
    <text
       xml:space="preserve"
       style="font-style:normal;font-variant:normal;font-weight:normal;font-stretch:normal;font-size:10.58333302px;line-height:1.25;font-family:slave;-inkscape-font-specification:slave;letter-spacing:0px;word-spacing:0px;fill:#000000;fill-opacity:1;stroke:none;stroke-width:0.26458332"
       x="330.3512"
       y="240.30357"
       id="text819-2"
       inkscape:export-filename="/home/marc/rect815.png"
       inkscape:export-xdpi="33.939999"
       inkscape:export-ydpi="33.939999"><tspan
         sodipodi:role="line"
         id="tspan817-9"
         x="330.3512"
         y="240.30357"
         style="stroke-width:0.26458332">Cyber ISO Cell</tspan></text>
    <rect
       style="fill:#ffffff;fill-opacity:1;stroke:#ff0000;stroke-width:2;stroke-miterlimit:4;stroke-dasharray:2.00000002, 2.00000002;stroke-dashoffset:0;stroke-opacity:1"
       id="rect815-1"
       width="157.2381"
       height="157.2381"
       x="-171.6012"
       y="245.59523"
       rx="3.5534863"
       ry="3.8487616"
       inkscape:export-filename="/home/marc/rect815.png"
       inkscape:export-xdpi="33.939999"
       inkscape:export-ydpi="33.939999" />
    <text
       xml:space="preserve"
       style="font-style:normal;font-variant:normal;font-weight:normal;font-stretch:normal;font-size:10.58333302px;line-height:1.25;font-family:slave;-inkscape-font-specification:slave;letter-spacing:0px;word-spacing:0px;fill:#000000;fill-opacity:1;stroke:none;stroke-width:0.26458332"
       x="-144.3869"
       y="294.73215"
       id="text819-27"
       inkscape:export-filename="/home/marc/rect815.png"
       inkscape:export-xdpi="33.939999"
       inkscape:export-ydpi="33.939999"><tspan
         sodipodi:role="line"
         id="tspan817-0"
         x="-144.3869"
         y="294.73215"
         style="stroke-width:0.26458332">Cyber ISO Cell</tspan></text>
    <text
       xml:space="preserve"
       style="font-style:normal;font-variant:normal;font-weight:normal;font-stretch:normal;font-size:10.58333302px;line-height:1.25;font-family:slave;-inkscape-font-specification:slave;letter-spacing:0px;word-spacing:0px;fill:#000000;fill-opacity:1;stroke:none;stroke-width:0.26458332"
       x="-484.56546"
       y="-71.904762"
       id="text893"
       inkscape:export-filename="/home/marc/rect815.png"
       inkscape:export-xdpi="33.939999"
       inkscape:export-ydpi="33.939999"><tspan
         sodipodi:role="line"
         id="tspan891"
         x="-484.56546"
         y="-71.904762"
         style="stroke-width:0.26458332">Materialismus</tspan></text>
    <text
       xml:space="preserve"
       style="font-style:normal;font-variant:normal;font-weight:normal;font-stretch:normal;font-size:10.58333302px;line-height:1.25;font-family:slave;-inkscape-font-specification:slave;letter-spacing:0px;word-spacing:0px;fill:#000000;fill-opacity:1;stroke:none;stroke-width:0.26458332"
       x="-482.29758"
       y="152.6131"
       id="text897"
       inkscape:export-filename="/home/marc/rect815.png"
       inkscape:export-xdpi="33.939999"
       inkscape:export-ydpi="33.939999"><tspan
         sodipodi:role="line"
         id="tspan895"
         x="-482.29758"
         y="152.6131"
         style="stroke-width:0.26458332">Spiritualität</tspan></text>
    <text
       xml:space="preserve"
       style="font-style:normal;font-variant:normal;font-weight:normal;font-stretch:normal;font-size:10.58333302px;line-height:1.25;font-family:slave;-inkscape-font-specification:slave;letter-spacing:0px;word-spacing:0px;fill:#000000;fill-opacity:1;stroke:none;stroke-width:0.26458332"
       x="-479.2738"
       y="337.06546"
       id="text901"
       inkscape:export-filename="/home/marc/rect815.png"
       inkscape:export-xdpi="33.939999"
       inkscape:export-ydpi="33.939999"><tspan
         sodipodi:role="line"
         id="tspan899"
         x="-479.2738"
         y="337.06546"
         style="stroke-width:0.26458332">Existenz</tspan></text>
    <text
       xml:space="preserve"
       style="font-style:normal;font-variant:normal;font-weight:normal;font-stretch:normal;font-size:10.58333302px;line-height:1.25;font-family:slave;-inkscape-font-specification:slave;letter-spacing:0px;word-spacing:0px;fill:#000000;fill-opacity:1;stroke:none;stroke-width:0.26458332"
       x="-161.01785"
       y="-77.952377"
       id="text924"
       inkscape:export-filename="/home/marc/rect815.png"
       inkscape:export-xdpi="33.939999"
       inkscape:export-ydpi="33.939999"><tspan
         sodipodi:role="line"
         id="tspan922"
         x="-161.01785"
         y="-77.952377"
         style="stroke-width:0.26458332">Gunnars aufgabe: leute zu bildung bekehren</tspan><tspan
         sodipodi:role="line"
         x="-161.01785"
         y="-64.723213"
         style="stroke-width:0.26458332"
         id="tspan926">bzw. die kommen in den knal von gunnar</tspan><tspan
         sodipodi:role="line"
         x="-161.01785"
         y="-51.494045"
         style="stroke-width:0.26458332"
         id="tspan928">weil sie eh schon interesse haben</tspan></text>
    <text
       xml:space="preserve"
       style="font-style:normal;font-variant:normal;font-weight:normal;font-stretch:normal;font-size:10.58333302px;line-height:1.25;font-family:slave;-inkscape-font-specification:slave;letter-spacing:0px;word-spacing:0px;fill:#000000;fill-opacity:1;stroke:none;stroke-width:0.26458332"
       x="-151.94643"
       y="-22.767857"
       id="text932"
       inkscape:export-filename="/home/marc/rect815.png"
       inkscape:export-xdpi="33.939999"
       inkscape:export-ydpi="33.939999"><tspan
         sodipodi:role="line"
         id="tspan930"
         x="-151.94643"
         y="-22.767857"
         style="stroke-width:0.26458332">Natching</tspan></text>
    <text
       xml:space="preserve"
       style="font-style:normal;font-variant:normal;font-weight:normal;font-stretch:normal;font-size:10.58333302px;line-height:1.25;font-family:slave;-inkscape-font-specification:slave;letter-spacing:0px;word-spacing:0px;fill:#000000;fill-opacity:1;stroke:none;stroke-width:0.26458332"
       x="8.3154764"
       y="-26.547621"
       id="text936"
       inkscape:export-filename="/home/marc/rect815.png"
       inkscape:export-xdpi="33.939999"
       inkscape:export-ydpi="33.939999"><tspan
         sodipodi:role="line"
         id="tspan934"
         x="8.3154764"
         y="-26.547621"
         style="stroke-width:0.26458332">Inverse-Natching</tspan></text>
    <text
       xml:space="preserve"
       style="font-style:normal;font-variant:normal;font-weight:normal;font-stretch:normal;font-size:10.58333302px;line-height:1.25;font-family:slave;-inkscape-font-specification:slave;letter-spacing:0px;word-spacing:0px;fill:#000000;fill-opacity:1;stroke:none;stroke-width:0.26458332"
       x="-418.04166"
       y="30.148809"
       id="text940"
       inkscape:export-filename="/home/marc/rect815.png"
       inkscape:export-xdpi="33.939999"
       inkscape:export-ydpi="33.939999"><tspan
         sodipodi:role="line"
         id="tspan938"
         x="-418.04166"
         y="30.148809"
         style="stroke-width:0.26458332">Psychiatrie</tspan></text>
    <text
       xml:space="preserve"
       style="font-style:normal;font-variant:normal;font-weight:normal;font-stretch:normal;font-size:10.58333302px;line-height:1.25;font-family:slave;-inkscape-font-specification:slave;letter-spacing:0px;word-spacing:0px;fill:#000000;fill-opacity:1;stroke:none;stroke-width:0.26458332"
       x="-408.21426"
       y="61.898808"
       id="text944"
       inkscape:export-filename="/home/marc/rect815.png"
       inkscape:export-xdpi="33.939999"
       inkscape:export-ydpi="33.939999"><tspan
         sodipodi:role="line"
         id="tspan942"
         x="-408.21426"
         y="61.898808"
         style="stroke-width:0.26458332">Mindcontrol</tspan></text>
    <text
       xml:space="preserve"
       style="font-style:normal;font-variant:normal;font-weight:normal;font-stretch:normal;font-size:10.58333302px;line-height:1.25;font-family:slave;-inkscape-font-specification:slave;letter-spacing:0px;word-spacing:0px;fill:#000000;fill-opacity:1;stroke:none;stroke-width:0.26458332"
       x="-160.26155"
       y="322.09717"
       id="text948"
       inkscape:export-filename="/home/marc/rect815.png"
       inkscape:export-xdpi="33.939999"
       inkscape:export-ydpi="33.939999"><tspan
         sodipodi:role="line"
         id="tspan946"
         x="-160.26155"
         y="322.09717"
         style="stroke-width:0.26458332">Nutzbarkeit</tspan><tspan
         sodipodi:role="line"
         x="-160.26155"
         y="335.32632"
         style="stroke-width:0.26458332"
         id="tspan950">dissoziierbarkeit</tspan></text>
    <text
       xml:space="preserve"
       style="font-style:normal;font-variant:normal;font-weight:normal;font-stretch:normal;font-size:10.58333302px;line-height:1.25;font-family:slave;-inkscape-font-specification:slave;letter-spacing:0px;word-spacing:0px;fill:#000000;fill-opacity:1;stroke:none;stroke-width:0.26458332"
       x="-439.96426"
       y="245.59523"
       id="text954"
       inkscape:export-filename="/home/marc/rect815.png"
       inkscape:export-xdpi="33.939999"
       inkscape:export-ydpi="33.939999"><tspan
         sodipodi:role="line"
         id="tspan952"
         x="-439.96426"
         y="245.59523"
         style="stroke-width:0.26458332">haben oder sein</tspan></text>
    <text
       xml:space="preserve"
       style="font-style:normal;font-variant:normal;font-weight:normal;font-stretch:normal;font-size:10.58333302px;line-height:1.25;font-family:slave;-inkscape-font-specification:slave;letter-spacing:0px;word-spacing:0px;fill:#000000;fill-opacity:1;stroke:none;stroke-width:0.26458332"
       x="-159.50595"
       y="-135.40475"
       id="text958"
       inkscape:export-filename="/home/marc/rect815.png"
       inkscape:export-xdpi="33.939999"
       inkscape:export-ydpi="33.939999"><tspan
         sodipodi:role="line"
         id="tspan956"
         x="-159.50595"
         y="-135.40475"
         style="stroke-width:0.26458332">lebenssinn: menschen helfen</tspan></text>
    <text
       xml:space="preserve"
       style="font-style:normal;font-variant:normal;font-weight:normal;font-stretch:normal;font-size:10.58333302px;line-height:1.25;font-family:slave;-inkscape-font-specification:slave;letter-spacing:0px;word-spacing:0px;fill:#000000;fill-opacity:1;stroke:none;stroke-width:0.26458332"
       x="-185.96428"
       y="-108.94643"
       id="text962"
       inkscape:export-filename="/home/marc/rect815.png"
       inkscape:export-xdpi="33.939999"
       inkscape:export-ydpi="33.939999"><tspan
         sodipodi:role="line"
         id="tspan960"
         x="-185.96428"
         y="-108.94643"
         style="stroke-width:0.26458332">Lebenssin: gunnar anmötzeln um zu zeigen dass</tspan><tspan
         sodipodi:role="line"
         x="-185.96428"
         y="-95.717262"
         style="stroke-width:0.26458332"
         id="tspan964">man was noch besseres ist</tspan></text>
    <text
       xml:space="preserve"
       style="font-style:normal;font-variant:normal;font-weight:normal;font-stretch:normal;font-size:10.58333302px;line-height:1.25;font-family:slave;-inkscape-font-specification:slave;letter-spacing:0px;word-spacing:0px;fill:#000000;fill-opacity:1;stroke:none;stroke-width:0.26458332"
       x="-437.69641"
       y="82.309525"
       id="text987"
       inkscape:export-filename="/home/marc/rect815.png"
       inkscape:export-xdpi="33.939999"
       inkscape:export-ydpi="33.939999"><tspan
         sodipodi:role="line"
         id="tspan985"
         x="-437.69641"
         y="82.309525"
         style="stroke-width:0.26458332">&quot;such stöckgen leibe masse&quot;</tspan></text>
    <text
       xml:space="preserve"
       style="font-style:normal;font-variant:normal;font-weight:normal;font-stretch:normal;font-size:10.58333302px;line-height:1.25;font-family:slave;-inkscape-font-specification:slave;letter-spacing:0px;word-spacing:0px;fill:#000000;fill-opacity:1;stroke:none;stroke-width:0.26458332"
       x="-501.39761"
       y="390.00983"
       id="text991"
       inkscape:export-filename="/home/marc/rect815.png"
       inkscape:export-xdpi="33.939999"
       inkscape:export-ydpi="33.939999"><tspan
         sodipodi:role="line"
         id="tspan989"
         x="-501.39761"
         y="390.00983"
         style="stroke-width:0.26458332">man fühlt sich besser, wenn man mit</tspan><tspan
         sodipodi:role="line"
         x="-501.39761"
         y="403.23898"
         style="stroke-width:0.26458332"
         id="tspan993">menschen interagiert die das selbe</tspan><tspan
         sodipodi:role="line"
         x="-501.39761"
         y="416.46817"
         style="stroke-width:0.26458332"
         id="tspan995">mindest haben</tspan></text>
    <text
       xml:space="preserve"
       style="font-style:normal;font-variant:normal;font-weight:normal;font-stretch:normal;font-size:10.58333302px;line-height:1.25;font-family:slave;-inkscape-font-specification:slave;letter-spacing:0px;word-spacing:0px;fill:#000000;fill-opacity:1;stroke:none;stroke-width:0.26458332"
       x="-501.39761"
       y="445.60187"
       id="text999"
       inkscape:export-filename="/home/marc/rect815.png"
       inkscape:export-xdpi="33.939999"
       inkscape:export-ydpi="33.939999"><tspan
         sodipodi:role="line"
         id="tspan997"
         x="-501.39761"
         y="445.60187"
         style="stroke-width:0.26458332">ich: kann ich die solange hauen, bis sie auch mein mindset haben?</tspan></text>
    <text
       xml:space="preserve"
       style="font-style:normal;font-variant:normal;font-weight:normal;font-stretch:normal;font-size:10.58333302px;line-height:1.25;font-family:slave;-inkscape-font-specification:slave;letter-spacing:0px;word-spacing:0px;fill:#000000;fill-opacity:1;stroke:none;stroke-width:0.26458332"
       x="-365.62473"
       y="-374.38107"
       id="text1003"
       inkscape:export-filename="/home/marc/rect815.png"
       inkscape:export-xdpi="33.939999"
       inkscape:export-ydpi="33.939999"><tspan
         sodipodi:role="line"
         id="tspan1001"
         x="-365.62473"
         y="-374.38107"
         style="stroke-width:0.26458332">Bereiche:</tspan></text>
    <text
       xml:space="preserve"
       style="font-style:normal;font-variant:normal;font-weight:normal;font-stretch:normal;font-size:10.58333302px;line-height:1.25;font-family:slave;-inkscape-font-specification:slave;letter-spacing:0px;word-spacing:0px;fill:#000000;fill-opacity:1;stroke:none;stroke-width:0.26458332"
       x="-180.67419"
       y="-427.83496"
       id="text1007"
       inkscape:export-filename="/home/marc/rect815.png"
       inkscape:export-xdpi="33.939999"
       inkscape:export-ydpi="33.939999"><tspan
         sodipodi:role="line"
         id="tspan1005"
         x="-180.67419"
         y="-427.83496"
         style="stroke-width:0.26458332">zu wenig</tspan><tspan
         sodipodi:role="line"
         x="-180.67419"
         y="-414.6058"
         style="stroke-width:0.26458332"
         id="tspan1009">wissen</tspan></text>
    <text
       xml:space="preserve"
       style="font-style:normal;font-variant:normal;font-weight:normal;font-stretch:normal;font-size:10.58333302px;line-height:1.25;font-family:slave;-inkscape-font-specification:slave;letter-spacing:0px;word-spacing:0px;fill:#000000;fill-opacity:1;stroke:none;stroke-width:0.26458332"
       x="-34.210499"
       y="-436.3876"
       id="text1013"
       inkscape:export-filename="/home/marc/rect815.png"
       inkscape:export-xdpi="33.939999"
       inkscape:export-ydpi="33.939999"><tspan
         sodipodi:role="line"
         id="tspan1011"
         x="-34.210499"
         y="-436.3876"
         style="stroke-width:0.26458332">genug wissen</tspan></text>
    <text
       xml:space="preserve"
       style="font-style:normal;font-variant:normal;font-weight:normal;font-stretch:normal;font-size:10.58333302px;line-height:1.25;font-family:slave;-inkscape-font-specification:slave;letter-spacing:0px;word-spacing:0px;fill:#000000;fill-opacity:1;stroke:none;stroke-width:0.26458332"
       x="110.11504"
       y="-431.04218"
       id="text1017"
       inkscape:export-filename="/home/marc/rect815.png"
       inkscape:export-xdpi="33.939999"
       inkscape:export-ydpi="33.939999"><tspan
         sodipodi:role="line"
         id="tspan1015"
         x="110.11504"
         y="-431.04218"
         style="stroke-width:0.26458332">zu viel wissen</tspan><tspan
         sodipodi:role="line"
         x="110.11504"
         y="-417.81302"
         style="stroke-width:0.26458332"
         id="tspan1019">(neugierige katze)</tspan></text>
    <text
       xml:space="preserve"
       style="font-style:normal;font-variant:normal;font-weight:normal;font-stretch:normal;font-size:10.58333302px;line-height:1.25;font-family:slave;-inkscape-font-specification:slave;letter-spacing:0px;word-spacing:0px;fill:#000000;fill-opacity:1;stroke:none;stroke-width:0.26458332"
       x="307.19315"
       y="-217.99142"
       id="text1023"
       transform="rotate(-90)"
       inkscape:export-filename="/home/marc/rect815.png"
       inkscape:export-xdpi="33.939999"
       inkscape:export-ydpi="33.939999"><tspan
         sodipodi:role="line"
         id="tspan1021"
         x="307.19315"
         y="-217.99142"
         style="stroke-width:0.26458332">richtige rt von wissen</tspan></text>
    <text
       xml:space="preserve"
       style="font-style:normal;font-variant:normal;font-weight:normal;font-stretch:normal;font-size:10.58333302px;line-height:1.25;font-family:slave;-inkscape-font-specification:slave;letter-spacing:0px;word-spacing:0px;fill:#000000;fill-opacity:1;stroke:none;stroke-width:0.26458332"
       x="142.4964"
       y="-194.41295"
       id="text1027"
       transform="rotate(-90)"
       inkscape:export-filename="/home/marc/rect815.png"
       inkscape:export-xdpi="33.939999"
       inkscape:export-ydpi="33.939999"><tspan
         sodipodi:role="line"
         id="tspan1025"
         x="142.4964"
         y="-194.41295"
         style="stroke-width:0.26458332">falsches wissen</tspan><tspan
         sodipodi:role="line"
         x="142.4964"
         y="-181.18378"
         style="stroke-width:0.26458332"
         id="tspan1029">(z.B. Metaebene mögen die nicht</tspan><tspan
         sodipodi:role="line"
         x="142.4964"
         y="-167.95461"
         style="stroke-width:0.26458332"
         id="tspan1031">oder reflexionseben)</tspan></text>
    <text
       xml:space="preserve"
       style="font-style:normal;font-variant:normal;font-weight:normal;font-stretch:normal;font-size:10.58333302px;line-height:1.25;font-family:slave;-inkscape-font-specification:slave;letter-spacing:0px;word-spacing:0px;fill:#000000;fill-opacity:1;stroke:none;stroke-width:0.26458332"
       x="429.76941"
       y="-312.37451"
       id="text1035"
       inkscape:export-filename="/home/marc/rect815.png"
       inkscape:export-xdpi="33.939999"
       inkscape:export-ydpi="33.939999"><tspan
         sodipodi:role="line"
         id="tspan1033"
         x="429.76941"
         y="-312.37451"
         style="stroke-width:0.26458332">tagesablauf, zeitplan, lese/studienzeit</tspan></text>
    <text
       xml:space="preserve"
       style="font-style:normal;font-variant:normal;font-weight:normal;font-stretch:normal;font-size:10.58333302px;line-height:1.25;font-family:slave;-inkscape-font-specification:slave;letter-spacing:0px;word-spacing:0px;fill:#000000;fill-opacity:1;stroke:none;stroke-width:0.26458332"
       x="102.10773"
       y="396.42429"
       id="text1049"
       inkscape:export-filename="/home/marc/rect815.png"
       inkscape:export-xdpi="33.939999"
       inkscape:export-ydpi="33.939999"><tspan
         sodipodi:role="line"
         id="tspan1047"
         x="102.10773"
         y="396.42429"
         style="stroke-width:0.26458332">Wenn der Feind bekannt ist, hat der Tag Struktur (Volker Pispers)</tspan><tspan
         sodipodi:role="line"
         x="102.10773"
         y="409.65344"
         style="stroke-width:0.26458332"
         id="tspan1055" /></text>
    <text
       xml:space="preserve"
       style="font-style:normal;font-variant:normal;font-weight:normal;font-stretch:normal;font-size:10.58333302px;line-height:1.25;font-family:slave;-inkscape-font-specification:slave;letter-spacing:0px;word-spacing:0px;fill:#000000;fill-opacity:1;stroke:none;stroke-width:0.26458332"
       x="102.6315"
       y="419.944"
       id="text1064"
       inkscape:export-filename="/home/marc/rect815.png"
       inkscape:export-xdpi="33.939999"
       inkscape:export-ydpi="33.939999"><tspan
         sodipodi:role="line"
         id="tspan1062"
         x="102.6315"
         y="419.944"
         style="stroke-width:0.26458332">man ist aber eigentlich oft einfach nur fro, dass man nicht selber der depp sit</tspan></text>
    <text
       xml:space="preserve"
       style="font-style:normal;font-variant:normal;font-weight:normal;font-stretch:normal;font-size:10.58333302px;line-height:1.25;font-family:slave;-inkscape-font-specification:slave;letter-spacing:0px;word-spacing:0px;fill:#000000;fill-opacity:1;stroke:none;stroke-width:0.26458332"
       x="103.70058"
       y="462.70712"
       id="text1068"
       inkscape:export-filename="/home/marc/rect815.png"
       inkscape:export-xdpi="33.939999"
       inkscape:export-ydpi="33.939999"><tspan
         sodipodi:role="line"
         id="tspan1066"
         x="103.70058"
         y="462.70712"
         style="stroke-width:0.26458332">kinder eine gute starthilfe ins leben geben</tspan></text>
    <text
       xml:space="preserve"
       style="font-style:normal;font-variant:normal;font-weight:normal;font-stretch:normal;font-size:10.58333302px;line-height:1.25;font-family:slave;-inkscape-font-specification:slave;letter-spacing:0px;word-spacing:0px;fill:#000000;fill-opacity:1;stroke:none;stroke-width:0.26458332"
       x="345.31223"
       y="132.36197"
       id="text1072"
       inkscape:export-filename="/home/marc/rect815.png"
       inkscape:export-xdpi="33.939999"
       inkscape:export-ydpi="33.939999"><tspan
         sodipodi:role="line"
         id="tspan1070"
         x="345.31223"
         y="132.36197"
         style="stroke-width:0.26458332">eskapismus, alkohol, drogen , falsche götter</tspan></text>
    <text
       xml:space="preserve"
       style="font-style:normal;font-variant:normal;font-weight:normal;font-stretch:normal;font-size:10.58333302px;line-height:1.25;font-family:slave;-inkscape-font-specification:slave;letter-spacing:0px;word-spacing:0px;fill:#000000;fill-opacity:1;stroke:none;stroke-width:0.26458332"
       x="343.17407"
       y="180.47049"
       id="text1076"
       inkscape:export-filename="/home/marc/rect815.png"
       inkscape:export-xdpi="33.939999"
       inkscape:export-ydpi="33.939999"><tspan
         sodipodi:role="line"
         id="tspan1074"
         x="343.17407"
         y="180.47049"
         style="stroke-width:0.26458332">ponies herumhitlern</tspan></text>
    <text
       xml:space="preserve"
       style="font-style:normal;font-variant:normal;font-weight:normal;font-stretch:normal;font-size:10.58333302px;line-height:1.25;font-family:slave;-inkscape-font-specification:slave;letter-spacing:0px;word-spacing:0px;fill:#000000;fill-opacity:1;stroke:none;stroke-width:0.26458332"
       x="394.48984"
       y="-195.845"
       id="text1080"
       inkscape:export-filename="/home/marc/rect815.png"
       inkscape:export-xdpi="33.939999"
       inkscape:export-ydpi="33.939999"><tspan
         sodipodi:role="line"
         id="tspan1078"
         x="394.48984"
         y="-195.845"
         style="stroke-width:0.26458332">vektor der eine von der formel weg treibt</tspan><tspan
         sodipodi:role="line"
         x="394.48984"
         y="-182.61583"
         style="stroke-width:0.26458332"
         id="tspan1082">*E* welche menschen zu einem glücklichern</tspan><tspan
         sodipodi:role="line"
         x="394.48984"
         y="-169.38667"
         style="stroke-width:0.26458332"
         id="tspan1084">leben führen würde. die formel wöre ohne herleitung</tspan><tspan
         sodipodi:role="line"
         x="394.48984"
         y="-156.1575"
         style="stroke-width:0.26458332"
         id="tspan1086">müsste aber die leute zwingen die herleitung</tspan><tspan
         sodipodi:role="line"
         x="394.48984"
         y="-142.92833"
         style="stroke-width:0.26458332"
         id="tspan1088">am besten iduktive logik der formel zu herleiten</tspan></text>
    <text
       xml:space="preserve"
       style="font-style:normal;font-variant:normal;font-weight:normal;font-stretch:normal;font-size:10.58333302px;line-height:1.25;font-family:slave;-inkscape-font-specification:slave;letter-spacing:0px;word-spacing:0px;fill:#000000;fill-opacity:1;stroke:none;stroke-width:0.26458332"
       x="-155.81642"
       y="348.60541"
       id="text1092"
       inkscape:export-filename="/home/marc/rect815.png"
       inkscape:export-xdpi="33.939999"
       inkscape:export-ydpi="33.939999"><tspan
         sodipodi:role="line"
         id="tspan1090"
         x="-155.81642"
         y="348.60541"
         style="stroke-width:0.26458332">fremdbestimmbrkeit</tspan></text>
    <text
       xml:space="preserve"
       style="font-style:normal;font-variant:normal;font-weight:normal;font-stretch:normal;font-size:10.58333302px;line-height:1.25;font-family:slave;-inkscape-font-specification:slave;letter-spacing:0px;word-spacing:0px;fill:#000000;fill-opacity:1;stroke:none;stroke-width:0.26458332"
       x="-155.81642"
       y="368.91791"
       id="text1096"
       inkscape:export-filename="/home/marc/rect815.png"
       inkscape:export-xdpi="33.939999"
       inkscape:export-ydpi="33.939999"><tspan
         sodipodi:role="line"
         id="tspan1094"
         x="-155.81642"
         y="368.91791"
         style="stroke-width:0.26458332">muss eltern/chefs ihren</tspan><tspan
         sodipodi:role="line"
         x="-155.81642"
         y="382.14706"
         style="stroke-width:0.26458332"
         id="tspan1098">narzismus befriedigen</tspan></text>
    <text
       xml:space="preserve"
       style="font-style:normal;font-variant:normal;font-weight:normal;font-stretch:normal;font-size:10.58333302px;line-height:1.25;font-family:slave;-inkscape-font-specification:slave;letter-spacing:0px;word-spacing:0px;fill:#000000;fill-opacity:1;stroke:none;stroke-width:0.26458332"
       x="-595.4765"
       y="-276.02585"
       id="text1102"
       inkscape:export-filename="/home/marc/rect815.png"
       inkscape:export-xdpi="33.939999"
       inkscape:export-ydpi="33.939999"><tspan
         sodipodi:role="line"
         id="tspan1100"
         x="-595.4765"
         y="-276.02585"
         style="stroke-width:0.26458332">https://de.wikipedia.org/wiki/Charles_Eisenstein</tspan><tspan
         sodipodi:role="line"
         x="-595.4765"
         y="-262.37088"
         style="stroke-width:0.26458332"
         id="tspan1104">heilsversprechen: yay in der natur sein, GäHN</tspan></text>
    <text
       xml:space="preserve"
       style="font-style:normal;font-variant:normal;font-weight:normal;font-stretch:normal;font-size:10.58333302px;line-height:1.25;font-family:slave;-inkscape-font-specification:slave;letter-spacing:0px;word-spacing:0px;fill:#000000;fill-opacity:1;stroke:none;stroke-width:0.26458332"
       x="-533.46997"
       y="-154.15096"
       id="text1108"
       inkscape:export-filename="/home/marc/rect815.png"
       inkscape:export-xdpi="33.939999"
       inkscape:export-ydpi="33.939999"><tspan
         sodipodi:role="line"
         id="tspan1106"
         x="-533.46997"
         y="-154.15096"
         style="stroke-width:0.26458332">emotionale abhängigkeit</tspan></text>
    <text
       xml:space="preserve"
       style="font-style:normal;font-variant:normal;font-weight:normal;font-stretch:normal;font-size:10.58333302px;line-height:1.25;font-family:slave;-inkscape-font-specification:slave;letter-spacing:0px;word-spacing:0px;fill:#000000;fill-opacity:1;stroke:none;stroke-width:0.26458332"
       x="104.76965"
       y="439.18738"
       id="text1112"
       inkscape:export-filename="/home/marc/rect815.png"
       inkscape:export-xdpi="33.939999"
       inkscape:export-ydpi="33.939999"><tspan
         sodipodi:role="line"
         id="tspan1110"
         x="104.76965"
         y="439.18738"
         style="stroke-width:0.26458332">oder common sense finden in dem man über einen 3. herzieht, wir gefühl, risky shift</tspan></text>
    <text
       xml:space="preserve"
       style="font-style:normal;font-variant:normal;font-weight:normal;font-stretch:normal;font-size:10.58333302px;line-height:1.25;font-family:slave;-inkscape-font-specification:slave;letter-spacing:0px;word-spacing:0px;fill:#000000;fill-opacity:1;stroke:none;stroke-width:0.26458332"
       x="506.74301"
       y="283.10199"
       id="text1116"
       inkscape:export-filename="/home/marc/rect815.png"
       inkscape:export-xdpi="33.939999"
       inkscape:export-ydpi="33.939999"><tspan
         sodipodi:role="line"
         id="tspan1114"
         x="506.74301"
         y="283.10199"
         style="stroke-width:0.26458332">&quot;zerfistung&quot; hochmut wird vor</tspan><tspan
         sodipodi:role="line"
         x="506.74301"
         y="296.33115"
         style="stroke-width:0.26458332"
         id="tspan1118">den fall gestellt</tspan></text>
    <text
       xml:space="preserve"
       style="font-style:normal;font-variant:normal;font-weight:normal;font-stretch:normal;font-size:10.58333302px;line-height:1.25;font-family:slave;-inkscape-font-specification:slave;letter-spacing:0px;word-spacing:0px;fill:#000000;fill-opacity:1;stroke:none;stroke-width:0.26458332"
       x="513.15747"
       y="314.10526"
       id="text1122"
       inkscape:export-filename="/home/marc/rect815.png"
       inkscape:export-xdpi="33.939999"
       inkscape:export-ydpi="33.939999"><tspan
         sodipodi:role="line"
         id="tspan1120"
         x="513.15747"
         y="314.10526"
         style="stroke-width:0.26458332">oder tacier der mit ner schlechten</tspan><tspan
         sodipodi:role="line"
         x="513.15747"
         y="327.33441"
         style="stroke-width:0.26458332"
         id="tspan1124">note einem dazu zwingt über</tspan><tspan
         sodipodi:role="line"
         x="513.15747"
         y="340.5636"
         style="stroke-width:0.26458332"
         id="tspan1126">seine mathe kentnisse nachzudenken</tspan></text>
    <text
       xml:space="preserve"
       style="font-style:normal;font-variant:normal;font-weight:normal;font-stretch:normal;font-size:10.58333302px;line-height:1.25;font-family:slave;-inkscape-font-specification:slave;letter-spacing:0px;word-spacing:0px;fill:#000000;fill-opacity:1;stroke:none;stroke-width:0.26458332"
       x="-459.70358"
       y="545.02606"
       id="text1130"
       inkscape:export-filename="/home/marc/rect815.png"
       inkscape:export-xdpi="33.939999"
       inkscape:export-ydpi="33.939999"><tspan
         sodipodi:role="line"
         id="tspan1128"
         x="-459.70358"
         y="545.02606"
         style="stroke-width:0.26458332">egoismus es gut mit seinem TRIBE zu haben</tspan></text>
    <text
       xml:space="preserve"
       style="font-style:normal;font-variant:normal;font-weight:normal;font-stretch:normal;font-size:10.58333302px;line-height:1.25;font-family:slave;-inkscape-font-specification:slave;letter-spacing:0px;word-spacing:0px;fill:#000000;fill-opacity:1;stroke:none;stroke-width:0.26458332"
       x="-202.66222"
       y="508.57019"
       id="text1134"
       inkscape:export-filename="/home/marc/rect815.png"
       inkscape:export-xdpi="33.939999"
       inkscape:export-ydpi="33.939999"><tspan
         sodipodi:role="line"
         id="tspan1132"
         x="-202.66222"
         y="508.57019"
         style="stroke-width:0.26458332">Umwelteinflüsse wie staat, geheimdienste</tspan></text>
    <text
       xml:space="preserve"
       style="font-style:normal;font-variant:normal;font-weight:normal;font-stretch:normal;font-size:10.58333302px;line-height:1.25;font-family:slave;-inkscape-font-specification:slave;letter-spacing:0px;word-spacing:0px;fill:#000000;fill-opacity:1;stroke:none;stroke-width:0.26458332"
       x="-482.15421"
       y="455.22357"
       id="text1138"
       inkscape:export-filename="/home/marc/rect815.png"
       inkscape:export-xdpi="33.939999"
       inkscape:export-ydpi="33.939999"><tspan
         sodipodi:role="line"
         id="tspan1136"
         x="-482.15421"
         y="455.22357"
         style="stroke-width:0.26458332">nö, geht nicht, wenn man nen juden und nen nazi in ne gummizelle</tspan><tspan
         sodipodi:role="line"
         x="-482.15421"
         y="468.45273"
         style="stroke-width:0.26458332"
         id="tspan1140">sperren würde gäb das eine never ending story</tspan></text>
    <text
       xml:space="preserve"
       style="font-style:normal;font-variant:normal;font-weight:normal;font-stretch:normal;font-size:10.58333302px;line-height:1.25;font-family:slave;-inkscape-font-specification:slave;letter-spacing:0px;word-spacing:0px;fill:#000000;fill-opacity:1;stroke:none;stroke-width:0.26458332"
       x="-473.60162"
       y="483.01959"
       id="text1144"
       inkscape:export-filename="/home/marc/rect815.png"
       inkscape:export-xdpi="33.939999"
       inkscape:export-ydpi="33.939999"><tspan
         sodipodi:role="line"
         id="tspan1142"
         x="-473.60162"
         y="483.01959"
         style="stroke-width:0.26458332">aber es gibt nazis die sich bekehren liessen, NWO propaganda zenrale redet mit einem</tspan></text>
    <text
       xml:space="preserve"
       style="font-style:normal;font-variant:normal;font-weight:normal;font-stretch:normal;font-size:10.58333302px;line-height:1.25;font-family:slave;-inkscape-font-specification:slave;letter-spacing:0px;word-spacing:0px;fill:#000000;fill-opacity:1;stroke:none;stroke-width:0.26458332"
       x="379.52274"
       y="567.47681"
       id="text1148"
       inkscape:export-filename="/home/marc/rect815.png"
       inkscape:export-xdpi="33.939999"
       inkscape:export-ydpi="33.939999"><tspan
         sodipodi:role="line"
         id="tspan1146"
         x="379.52274"
         y="567.47681"
         style="stroke-width:0.26458332">verschiedene quellen</tspan><tspan
         sodipodi:role="line"
         x="379.52274"
         y="580.70599"
         style="stroke-width:0.26458332"
         id="tspan1150">quellen angebot</tspan><tspan
         sodipodi:role="line"
         x="379.52274"
         y="593.93512"
         style="stroke-width:0.26458332"
         id="tspan1152">diversifizieren</tspan><tspan
         sodipodi:role="line"
         x="379.52274"
         y="607.16431"
         style="stroke-width:0.26458332"
         id="tspan1154">jeder sein eigenes portfolio an quellen</tspan></text>
    <text
       xml:space="preserve"
       style="font-style:normal;font-variant:normal;font-weight:normal;font-stretch:normal;font-size:10.58333302px;line-height:1.25;font-family:slave;-inkscape-font-specification:slave;letter-spacing:0px;word-spacing:0px;fill:#000000;fill-opacity:1;stroke:none;stroke-width:0.26458332"
       x="-267.26953"
       y="601.68726"
       id="text1158"
       inkscape:export-filename="/home/marc/rect815.png"
       inkscape:export-xdpi="33.939999"
       inkscape:export-ydpi="33.939999"><tspan
         sodipodi:role="line"
         id="tspan1156"
         x="-267.26953"
         y="601.68726"
         style="stroke-width:0.26458332">jungere schutzen, warnen, aber auch angeben</tspan></text>
    <text
       xml:space="preserve"
       style="font-style:normal;font-variant:normal;font-weight:normal;font-stretch:normal;font-size:10.58333302px;line-height:1.25;font-family:slave;-inkscape-font-specification:slave;letter-spacing:0px;word-spacing:0px;fill:#000000;fill-opacity:1;stroke:none;stroke-width:0.26458332"
       x="31.003265"
       y="338.69406"
       id="text1162"
       inkscape:export-filename="/home/marc/rect815.png"
       inkscape:export-xdpi="33.939999"
       inkscape:export-ydpi="33.939999"><tspan
         sodipodi:role="line"
         id="tspan1160"
         x="31.003265"
         y="338.69406"
         style="stroke-width:0.26458332">existenzberechtigung durch</tspan><tspan
         sodipodi:role="line"
         x="31.003265"
         y="351.92322"
         style="stroke-width:0.26458332"
         id="tspan1164">einen INFORMATIKER job</tspan></text>
    <text
       xml:space="preserve"
       style="font-style:normal;font-variant:normal;font-weight:normal;font-stretch:normal;font-size:10.58333302px;line-height:1.25;font-family:slave;-inkscape-font-specification:slave;letter-spacing:0px;word-spacing:0px;fill:#000000;fill-opacity:1;stroke:none;stroke-width:0.26458332"
       x="-171.6012"
       y="245.59523"
       id="text1168"
       inkscape:export-filename="/home/marc/rect815.png"
       inkscape:export-xdpi="33.939999"
       inkscape:export-ydpi="33.939999"><tspan
         sodipodi:role="line"
         id="tspan1166"
         x="-171.6012"
         y="245.59523"
         style="stroke-width:0.26458332">Heisversprechen: raus aus der iso zelle oder pychiatrie</tspan></text>
    <text
       xml:space="preserve"
       style="font-style:normal;font-variant:normal;font-weight:normal;font-stretch:normal;font-size:10.58333302px;line-height:1.25;font-family:slave;-inkscape-font-specification:slave;letter-spacing:0px;word-spacing:0px;fill:#000000;fill-opacity:1;stroke:none;stroke-width:0.26458332"
       x="-176.89285"
       y="124.64285"
       id="text1172"
       inkscape:export-filename="/home/marc/rect815.png"
       inkscape:export-xdpi="33.939999"
       inkscape:export-ydpi="33.939999"><tspan
         sodipodi:role="line"
         id="tspan1170"
         x="-176.89285"
         y="124.64285"
         style="stroke-width:0.26458332">rössli in pferdebox</tspan><tspan
         sodipodi:role="line"
         x="-176.89285"
         y="137.87202"
         style="stroke-width:0.26458332"
         id="tspan1174">halten, dann freut</tspan><tspan
         sodipodi:role="line"
         x="-176.89285"
         y="151.10118"
         style="stroke-width:0.26458332"
         id="tspan1176">es sich dass man mit </tspan><tspan
         sodipodi:role="line"
         x="-176.89285"
         y="164.33035"
         style="stroke-width:0.26458332"
         id="tspan1178">ihm laufen geht und</tspan><tspan
         sodipodi:role="line"
         x="-176.89285"
         y="177.55952"
         style="stroke-width:0.26458332"
         id="tspan1180">befriedigt den narzistmus</tspan></text>
    <text
       xml:space="preserve"
       style="font-style:normal;font-variant:normal;font-weight:normal;font-stretch:normal;font-size:10.58333302px;line-height:1.25;font-family:slave;-inkscape-font-specification:slave;letter-spacing:0px;word-spacing:0px;fill:#000000;fill-opacity:1;stroke:none;stroke-width:0.26458332"
       x="485.32141"
       y="-87.023811"
       id="text1184"
       inkscape:export-filename="/home/marc/rect815.png"
       inkscape:export-xdpi="33.939999"
       inkscape:export-ydpi="33.939999"><tspan
         sodipodi:role="line"
         id="tspan1182"
         x="485.32141"
         y="-87.023811"
         style="stroke-width:0.26458332">critical mass detection in social networks</tspan><tspan
         sodipodi:role="line"
         x="485.32141"
         y="-73.794647"
         style="stroke-width:0.26458332"
         id="tspan1186">seems to be abused also if younger people only</tspan><tspan
         sodipodi:role="line"
         x="485.32141"
         y="-60.565479"
         style="stroke-width:0.26458332"
         id="tspan1188">want to have peaceful strubbel-bücherwurm-netzwerk</tspan></text>
    <text
       xml:space="preserve"
       style="font-style:normal;font-variant:normal;font-weight:normal;font-stretch:normal;font-size:10.58333302px;line-height:1.25;font-family:slave;-inkscape-font-specification:slave;letter-spacing:0px;word-spacing:0px;fill:#000000;fill-opacity:1;stroke:none;stroke-width:0.26458332"
       x="-9.0714283"
       y="255.04463"
       id="text1192"
       inkscape:export-filename="/home/marc/rect815.png"
       inkscape:export-xdpi="33.939999"
       inkscape:export-ydpi="33.939999"><tspan
         sodipodi:role="line"
         id="tspan1190"
         x="-9.0714283"
         y="255.04463"
         style="stroke-width:0.26458332">resultieren ein kontrast-effekt auf</tspan><tspan
         sodipodi:role="line"
         x="-9.0714283"
         y="268.2738"
         style="stroke-width:0.26458332"
         id="tspan1194">deprivation und anschliessender</tspan><tspan
         sodipodi:role="line"
         x="-9.0714283"
         y="281.50296"
         style="stroke-width:0.26458332"
         id="tspan1196">sinnolser materialismus</tspan></text>
  </g>
</svg>
